USD;1.0960
JPY;129.30
BGN;1.9558
CZK;24.890
DKK;7.4405
GBP;0.83915
HUF;373.88
PLN;4.7218
RON;4.9490
SEK;10.5368
CHF;1.0249
ISK;145.10
NOK;9.8588
HRK;7.5745
TRY;16.2000
AUD;1.5137
BRL;5.5286
CAD;1.3978
CNY;6.9738
HKD;8.5815
IDR;15678.53
ILS;3.5860
INR;83.9310
KRW;1357.77
MXN;22.8311
MYR;4.6087
NZD;1.6130
PHP;57.398
SGD;1.4947
THB;36.590
ZAR;16.5029
