{
 "nombre": "Fran",
 "apellido": "García",
 "edad": 25,
 "domicilio": {
 "direccion": "Lillo Juan, 128",
 "ciudad": "San Vicente del Raspeig",
 "comunidad": "Valenciana",
 "codigoPostal": 03690
 },
 "numerosTelefonos": [
 {
 "tipo": "casa",
 "numero": "666 666 666"
 },
 {
 "tipo": "movil",
 "numero": "777 777 777"
  }
 ]
}
 